{
    "node": {
        "nodeHost": "localhost",
        "nodePort": "8080",
        "nodeProtocol": "http"
    },
    "mongo": {
        "mongoHost": "localhost",
        "mongoPort": "32768",
        "mongoDb": "app"
    }
}